{
    "0": {
        "pk": 0,
        "member": 1,
        "book_edition": 0,
        "num_copies": 5,
        "rent_date": "28.06.2021.",
        "return_date": "06.05.2022.",
        "extended": true
    },
    "1": {
        "pk": 1,
        "member": 1,
        "book_edition": 0,
        "num_copies": 10,
        "rent_date": "05.07.2021.",
        "return_date": "20.07.2021.",
        "extended": false
    }
}